<?xml version="1.0" encoding="utf-8"?>
<!-- Generator: Adobe Illustrator 19.0.0, SVG Export Plug-In . SVG Version: 6.00 Build 0)  -->
<svg version="1.1" id="Layer_1" xmlns="http://www.w3.org/2000/svg" xmlns:xlink="http://www.w3.org/1999/xlink" x="0px" y="0px"
	 viewBox="-55 372 500 50" style="enable-background:new -55 372 500 50;" xml:space="preserve">
<style type="text/css">
	.st0{fill:#FFFFFF;}
</style>
<g>
	<path class="st0" d="M146.5,749.1l-7,12.5c2.2,1.9,3.6,4.7,3.6,7.8c0,5.7-4.6,10.3-10.3,10.3c-1.1,0-2.1-0.2-3.1-0.5l-6.9,12.6
		c3.1,1.3,6.4,2.1,10,2.1c13.6,0,24.5-11,24.5-24.5C157.3,761,153.1,753.5,146.5,749.1"/>
	<path class="st0" d="M135.1,759.4l7-12.6c-2.9-1.2-6.1-1.9-9.4-1.9c-13.6,0-24.6,11-24.6,24.6c0,8.2,4.1,15.5,10.4,20l6.9-12.3
		l0.2-0.2c-2-1.9-3.2-4.6-3.2-7.5c0-5.7,4.6-10.3,10.3-10.3C133.6,759.1,134.4,759.2,135.1,759.4"/>
	<path class="st0" d="M238.6,749.1l-7,12.5c2.2,1.9,3.6,4.7,3.6,7.8c0,5.7-4.6,10.3-10.3,10.3c-1.1,0-2.1-0.2-3.1-0.5l-6.9,12.6
		c3,1.3,6.4,2.1,10,2.1c13.6,0,24.5-11,24.5-24.5C249.4,761,245.2,753.5,238.6,749.1"/>
	<path class="st0" d="M227.2,759.4l7-12.6c-2.9-1.2-6.1-1.9-9.4-1.9c-13.6,0-24.6,11-24.6,24.6c0,8.2,4.1,15.5,10.4,20l6.9-12.3
		l0.2-0.2c-2-1.9-3.2-4.6-3.2-7.5c0-5.7,4.6-10.3,10.3-10.3C225.7,759.1,226.5,759.2,227.2,759.4"/>
	<polygon class="st0" points="159.8,746 197.7,746 197.7,761 185.9,761 185.9,792.7 171.7,792.7 171.7,761 159.8,761 	"/>
	<path class="st0" d="M287.7,771.8c2.2,2.5,3.1,5.7,3.1,8.7c0,6.7-5.5,12.2-12.2,12.2h-0.2h-24.5v-14.3h16c0.9,0,1.6-0.2,1.6-1
		c0-0.5-0.2-0.9-0.6-1.2l-12.9-8.6c-2.7-2.2-4.4-5.6-4.4-9.4c0-6.7,5.5-12.2,12.2-12.2h22.5v13.1h-14.4c-0.9,0-1.6,0.2-1.6,1
		c0,0.4,0.1,0.7,0.3,1L287.7,771.8z"/>
	<polygon class="st0" points="325.2,759.2 306.8,792.7 290.1,792.7 317,744 	"/>
	<polygon class="st0" points="327.5,763.3 343.9,792.7 327.5,792.7 319.7,777.6 	"/>
	<polygon class="st0" points="359.3,792.7 345.1,792.7 345.1,744 371,764.3 371,746 385.5,746 385.5,794 359.3,773.7 	"/>
	<polygon class="st0" points="-105.5,792.8 -90.5,792.8 -90.5,773.6 -72.1,773.6 -72.1,763.8 -90.5,763.8 -90.5,755.8 -69.1,755.8 
		-69.1,745.2 -105.5,745.2 	"/>
	<path class="st0" d="M-48.4,769c0-7.5,2.9-13.9,10.3-13.9s10.3,6.3,10.3,13.9c0,7.1-2.9,13.9-10.3,13.9S-48.4,776.1-48.4,769
		 M-63.2,769c0,15.2,8.7,24.6,25.1,24.6c16.3,0,25.1-9.5,25.1-24.6c0-15.3-8.6-24.7-25.1-24.7S-63.2,753.7-63.2,769"/>
	<path class="st0" d="M9.6,754.2h2.9c5.3,0,10.2,0.8,10.2,5.3c0,5.4-5.7,5.5-10.2,5.5H9.6V754.2z M-5.2,792.8H9.6V774h2.1
		c2.8,0,4.8,1.4,8.9,9.3l4.8,9.5h16.3l-6.8-13c-2.6-5.8-3.8-7.3-8.3-8.4c6.8-1.6,10.9-6.6,10.9-13c0-8.2-5.4-13.3-17.8-13.3h-25
		v47.7H-5.2z"/>
	<path class="st0" d="M61.3,755.8h5.2c7.3,0,9.8,3.7,9.8,13.2s-3.8,13.2-9.8,13.2h-5.2V755.8z M46.3,792.8h18.2
		c17.1,0,26.3-6.2,26.3-24c0-18.4-8.9-23.6-26.3-23.6H46.3V792.8z"/>
</g>
</svg>
