<?xml version="1.0" encoding="utf-8"?>
<!-- Generator: Adobe Illustrator 19.0.0, SVG Export Plug-In . SVG Version: 6.00 Build 0)  -->
<svg version="1.1" id="Layer_1" xmlns="http://www.w3.org/2000/svg" xmlns:xlink="http://www.w3.org/1999/xlink" x="0px" y="0px"
	 viewBox="-230 372 150 50" style="enable-background:new -230 372 150 50;" xml:space="preserve">
<style type="text/css">
	.st0{fill:#D1D3D4;}
	.st1{fill:url(#SVGID_1_);}
	.st2{fill:url(#SVGID_2_);}
	.st3{fill:url(#SVGID_3_);}
	.st4{fill:url(#SVGID_4_);}
	.st5{fill:url(#SVGID_5_);}
	.st6{fill:url(#SVGID_6_);}
	.st7{fill:url(#SVGID_7_);}
	.st8{fill:url(#SVGID_8_);}
	.st9{fill:url(#SVGID_9_);}
	.st10{fill:url(#SVGID_10_);}
	.st11{fill:url(#SVGID_11_);}
	.st12{fill:url(#SVGID_12_);}
	.st13{fill:url(#SVGID_13_);}
	.st14{fill:url(#SVGID_14_);}
	.st15{fill:url(#SVGID_15_);}
	.st16{fill:url(#SVGID_16_);}
	.st17{fill:url(#SVGID_17_);}
	.st18{fill:url(#SVGID_18_);}
	.st19{fill:url(#SVGID_19_);}
	.st20{fill:url(#SVGID_20_);}
	.st21{fill:url(#SVGID_21_);}
	.st22{fill:url(#SVGID_22_);}
	.st23{fill:url(#SVGID_23_);}
	.st24{fill:url(#SVGID_24_);}
	.st25{fill:url(#SVGID_25_);}
	.st26{fill:#58595B;}
	.st27{fill:url(#SVGID_26_);}
	.st28{fill:url(#SVGID_27_);}
	.st29{fill:url(#SVGID_28_);}
	.st30{fill:url(#SVGID_29_);}
	.st31{fill:url(#SVGID_30_);}
</style>
<g>
	<g>
		<path class="st0" d="M-155,373c-35.5,0-63.9,10.6-63.9,24c0,13.3,28.7,24,63.9,24s63.9-10.8,63.9-24S-119.8,373-155,373z
			 M-91.5,395.1c0,0.1,0,0.2,0.1,0.3C-91.4,395.4-91.4,395.3-91.5,395.1z"/>
	</g>
	
		<radialGradient id="SVGID_1_" cx="2525.6077" cy="3601.1162" r="878.9219" gradientTransform="matrix(0.314 0 0 0.3062 -948.5163 -465.2375)" gradientUnits="userSpaceOnUse">
		<stop  offset="0" style="stop-color:#000000"/>
		<stop  offset="0.2164" style="stop-color:#00000C"/>
		<stop  offset="0.476" style="stop-color:#000023"/>
		<stop  offset="0.7" style="stop-color:#000033"/>
		<stop  offset="0.9045" style="stop-color:#004282"/>
		<stop  offset="0.9204" style="stop-color:#0063A1"/>
		<stop  offset="0.936" style="stop-color:#0184C0"/>
		<stop  offset="0.948" style="stop-color:#159BD5"/>
		<stop  offset="0.955" style="stop-color:#1CA6DF"/>
	</radialGradient>
	<path class="st1" d="M-155,374c-34.8,0-62.9,10.3-62.9,23s28.2,23,62.9,23c34.8,0,62.9-10.3,62.9-23S-120.2,374-155,374z"/>
	<g>
		<g>
			
				<linearGradient id="SVGID_2_" gradientUnits="userSpaceOnUse" x1="220.8088" y1="2433.4094" x2="220.8088" y2="2357.7881" gradientTransform="matrix(0.6442 0 -2.933585e-005 0.6442 -297.2748 -1146.1443)">
				<stop  offset="0" style="stop-color:#00053D"/>
				<stop  offset="0.1748" style="stop-color:#000840"/>
				<stop  offset="0.3297" style="stop-color:#001046"/>
				<stop  offset="0.4771" style="stop-color:#001950"/>
				<stop  offset="0.6198" style="stop-color:#00245D"/>
				<stop  offset="0.758" style="stop-color:#002F6E"/>
				<stop  offset="0.809" style="stop-color:#003475"/>
				<stop  offset="0.9226" style="stop-color:#005793"/>
				<stop  offset="1" style="stop-color:#006DA9"/>
			</linearGradient>
			<path class="st2" d="M-212.9,397.9c0-10.5,26.1-19.1,58.2-19.1c29.6,0,54,7.2,57.7,16.6c-2.5-9.8-27.5-17.6-58-17.6
				c-32.1,0-58.2,8.6-58.2,19.2c0,0.9,0.2,1.7,0.5,2.5C-212.8,399-212.9,398.4-212.9,397.9z"/>
			
				<linearGradient id="SVGID_3_" gradientUnits="userSpaceOnUse" x1="221.9733" y1="2433.4143" x2="221.9733" y2="2357.7861" gradientTransform="matrix(0.6442 0 -2.933585e-005 0.6442 -297.2748 -1146.1443)">
				<stop  offset="0" style="stop-color:#00053D"/>
				<stop  offset="0.1748" style="stop-color:#000840"/>
				<stop  offset="0.3297" style="stop-color:#001046"/>
				<stop  offset="0.4771" style="stop-color:#001950"/>
				<stop  offset="0.6198" style="stop-color:#00245D"/>
				<stop  offset="0.758" style="stop-color:#002F6E"/>
				<stop  offset="0.809" style="stop-color:#003475"/>
				<stop  offset="0.9226" style="stop-color:#005793"/>
				<stop  offset="1" style="stop-color:#006DA9"/>
			</linearGradient>
			<path class="st3" d="M-95.1,394.6c0.3,0.8,0.4,1.6,0.4,2.4c0,11.6-27,21-60.3,21c-29.6,0-54.3-7.4-59.4-17.3
				c3.9,10.2,29.2,18.1,59.8,18.1c33.3,0,60.3-9.3,60.3-20.8C-94.3,396.9-94.5,395.7-95.1,394.6z"/>
		</g>
		<g>
			
				<linearGradient id="SVGID_4_" gradientUnits="userSpaceOnUse" x1="237.8035" y1="2416.335" x2="237.8035" y2="2363.9375" gradientTransform="matrix(0.6442 0 -2.933585e-005 0.6442 -297.2639 -1143.5131)">
				<stop  offset="0" style="stop-color:#00053D"/>
				<stop  offset="0.1748" style="stop-color:#000840"/>
				<stop  offset="0.3297" style="stop-color:#001046"/>
				<stop  offset="0.4771" style="stop-color:#001950"/>
				<stop  offset="0.6198" style="stop-color:#00245D"/>
				<stop  offset="0.758" style="stop-color:#002F6E"/>
				<stop  offset="0.809" style="stop-color:#003475"/>
				<stop  offset="0.9226" style="stop-color:#005793"/>
				<stop  offset="1" style="stop-color:#006DA9"/>
			</linearGradient>
			<path class="st4" d="M-143.8,399c-1.4,1.4-1.5,3.2-0.6,4c0.3,0.3,0.7,0.4,1.1,0.5c-0.6-0.7-0.8-2.2-0.1-3.3
				c-0.1-0.3-0.2-0.7-0.1-1.1C-143.5,399-143.6,398.9-143.8,399z"/>
			
				<linearGradient id="SVGID_5_" gradientUnits="userSpaceOnUse" x1="260.333" y1="2416.4019" x2="260.333" y2="2363.7512" gradientTransform="matrix(0.6442 0 -2.933585e-005 0.6442 -297.2639 -1143.5131)">
				<stop  offset="0" style="stop-color:#00053D"/>
				<stop  offset="0.1748" style="stop-color:#000840"/>
				<stop  offset="0.3297" style="stop-color:#001046"/>
				<stop  offset="0.4771" style="stop-color:#001950"/>
				<stop  offset="0.6198" style="stop-color:#00245D"/>
				<stop  offset="0.758" style="stop-color:#002F6E"/>
				<stop  offset="0.809" style="stop-color:#003475"/>
				<stop  offset="0.9226" style="stop-color:#005793"/>
				<stop  offset="1" style="stop-color:#006DA9"/>
			</linearGradient>
			<path class="st5" d="M-129.8,402.1C-129.8,402.1-129.8,402-129.8,402.1L-129.8,402.1c0,0.2,0.1,0.6,0.1,0.9
				c0.1-0.1,0.1-0.3,0.2-0.4c0.1-0.1,0-0.1,0-0.2C-129.7,402.3-129.8,402.2-129.8,402.1z"/>
			
				<linearGradient id="SVGID_6_" gradientUnits="userSpaceOnUse" x1="263.4804" y1="2414.4893" x2="263.4804" y2="2365.844" gradientTransform="matrix(0.6442 0 -2.933585e-005 0.6442 -297.2639 -1143.5131)">
				<stop  offset="0" style="stop-color:#00053D"/>
				<stop  offset="0.1748" style="stop-color:#000840"/>
				<stop  offset="0.3297" style="stop-color:#001046"/>
				<stop  offset="0.4771" style="stop-color:#001950"/>
				<stop  offset="0.6198" style="stop-color:#00245D"/>
				<stop  offset="0.758" style="stop-color:#002F6E"/>
				<stop  offset="0.809" style="stop-color:#003475"/>
				<stop  offset="0.9226" style="stop-color:#005793"/>
				<stop  offset="1" style="stop-color:#006DA9"/>
			</linearGradient>
			<path class="st6" d="M-127.4,398.9c0,0.2,0.2,0.3,0.3,0.1c0-0.1,0.1-0.1,0.1-0.2s-0.1-0.1-0.1-0.2c-0.2-0.2-0.7-0.7-1.1-1.1
				C-127.7,397.9-127.5,398.4-127.4,398.9z"/>
			
				<linearGradient id="SVGID_7_" gradientUnits="userSpaceOnUse" x1="234.2969" y1="2415.1719" x2="234.2969" y2="2364.8989" gradientTransform="matrix(0.6442 0 -2.933585e-005 0.6442 -297.2639 -1143.5131)">
				<stop  offset="0" style="stop-color:#00053D"/>
				<stop  offset="0.1748" style="stop-color:#000840"/>
				<stop  offset="0.3297" style="stop-color:#001046"/>
				<stop  offset="0.4771" style="stop-color:#001950"/>
				<stop  offset="0.6198" style="stop-color:#00245D"/>
				<stop  offset="0.758" style="stop-color:#002F6E"/>
				<stop  offset="0.809" style="stop-color:#003475"/>
				<stop  offset="0.9226" style="stop-color:#005793"/>
				<stop  offset="1" style="stop-color:#006DA9"/>
			</linearGradient>
			<path class="st7" d="M-146.1,398.7c0.1-0.1,0.1-0.2,0.2-0.2c-0.3-0.8-0.7-1.6-1-1.9c0.4,0.5,0.5,1.2,0.5,2.1
				C-146.4,398.9-146.2,398.9-146.1,398.7z"/>
			
				<linearGradient id="SVGID_8_" gradientUnits="userSpaceOnUse" x1="279.3134" y1="2380.4919" x2="279.3134" y2="2380.4919" gradientTransform="matrix(0.6442 0 -2.933585e-005 0.6442 -297.2639 -1143.5131)">
				<stop  offset="0" style="stop-color:#00053D"/>
				<stop  offset="0.1748" style="stop-color:#000840"/>
				<stop  offset="0.3297" style="stop-color:#001046"/>
				<stop  offset="0.4771" style="stop-color:#001950"/>
				<stop  offset="0.6198" style="stop-color:#00245D"/>
				<stop  offset="0.758" style="stop-color:#002F6E"/>
				<stop  offset="0.809" style="stop-color:#003475"/>
				<stop  offset="0.9226" style="stop-color:#005793"/>
				<stop  offset="1" style="stop-color:#006DA9"/>
			</linearGradient>
			<path class="st8" d="M-117.4,390L-117.4,390L-117.4,390z"/>
			
				<linearGradient id="SVGID_9_" gradientUnits="userSpaceOnUse" x1="255.2535" y1="2416.5112" x2="255.2535" y2="2363.5005" gradientTransform="matrix(0.6442 0 -2.933585e-005 0.6442 -297.2639 -1143.5131)">
				<stop  offset="0" style="stop-color:#00053D"/>
				<stop  offset="0.1748" style="stop-color:#000840"/>
				<stop  offset="0.3297" style="stop-color:#001046"/>
				<stop  offset="0.4771" style="stop-color:#001950"/>
				<stop  offset="0.6198" style="stop-color:#00245D"/>
				<stop  offset="0.758" style="stop-color:#002F6E"/>
				<stop  offset="0.809" style="stop-color:#003475"/>
				<stop  offset="0.9226" style="stop-color:#005793"/>
				<stop  offset="1" style="stop-color:#006DA9"/>
			</linearGradient>
			<path class="st9" d="M-135.7,407.4c0.2,0.1,0.3,0.1,0.5,0.2c-0.1-0.2-0.1-0.4-0.1-0.6c0-1.6,0.5-3.2,1.7-4.7
				c1.5-1.9,3.1-2.8,4.2-2.3c-0.1-0.4-0.3-0.8-0.7-1c-1.1-0.5-2.8,0.4-4.3,2.3c-1.3,1.5-1.9,3.1-2,4.7
				C-136.4,406.5-136.2,407.1-135.7,407.4z"/>
			
				<linearGradient id="SVGID_10_" gradientUnits="userSpaceOnUse" x1="209.4715" y1="2416.5061" x2="209.4715" y2="2363.5078" gradientTransform="matrix(0.6442 0 -2.933585e-005 0.6442 -297.2639 -1143.5131)">
				<stop  offset="0" style="stop-color:#00053D"/>
				<stop  offset="0.1748" style="stop-color:#000840"/>
				<stop  offset="0.3297" style="stop-color:#001046"/>
				<stop  offset="0.4771" style="stop-color:#001950"/>
				<stop  offset="0.6198" style="stop-color:#00245D"/>
				<stop  offset="0.758" style="stop-color:#002F6E"/>
				<stop  offset="0.809" style="stop-color:#003475"/>
				<stop  offset="0.9226" style="stop-color:#005793"/>
				<stop  offset="1" style="stop-color:#006DA9"/>
			</linearGradient>
			<path class="st10" d="M-159.4,399.2c0.2-0.1,0.2-0.2,0.2-0.4c-0.1-0.3-0.3-1-0.3-1.2l0,0c0,0.2,0,0.3-0.2,0.4
				c-1.7,0.6-3.4,1.7-4.6,3.2c-1.3,1.8-1.7,4-0.8,5.2c0.2,0.3,0.5,0.5,0.8,0.7c-0.5-1.5-0.1-3.5,1-5
				C-162.2,400.5-160.9,399.9-159.4,399.2z"/>
			
				<linearGradient id="SVGID_11_" gradientUnits="userSpaceOnUse" x1="232.4348" y1="2416.4907" x2="232.4348" y2="2363.8555" gradientTransform="matrix(0.6442 0 -2.933585e-005 0.6442 -297.2639 -1143.5131)">
				<stop  offset="0" style="stop-color:#00053D"/>
				<stop  offset="0.1748" style="stop-color:#000840"/>
				<stop  offset="0.3297" style="stop-color:#001046"/>
				<stop  offset="0.4771" style="stop-color:#001950"/>
				<stop  offset="0.6198" style="stop-color:#00245D"/>
				<stop  offset="0.758" style="stop-color:#002F6E"/>
				<stop  offset="0.809" style="stop-color:#003475"/>
				<stop  offset="0.9226" style="stop-color:#005793"/>
				<stop  offset="1" style="stop-color:#006DA9"/>
			</linearGradient>
			<path class="st11" d="M-140.3,404.7c-0.4,0.3-0.9,0.6-1.6,0.9c-0.8,0.3-1.2,0.4-1.9,0.4c-0.9,0-1.8-0.4-2.4-1.3
				c-0.3-0.5-0.5-1.3-0.5-1.8c0-0.1-0.1-0.2-0.2,0c-1.6,2.4-3.1,4.8-4.7,7.3c-0.1,0.1-0.2,0.2-0.3,0.2c-1,0-2,0-3.1,0
				c-0.1,0-0.2-0.1-0.2-0.1c0.1,0.4,0.2,1.1,0.3,1.2c0,0.1,0.1,0.2,0.2,0.2c1.2,0,2.6,0,3.5,0c0.1,0,0.2-0.1,0.3-0.2
				c1.4-2.2,3-4.7,4.4-6.9c0.3,1.1,0.5,1.7,1.1,2.2s1.2,0.7,2,0.7s1.5-0.3,2.4-0.7c0.3-0.1,0.6-0.3,0.9-0.5c0-0.4,0-0.8,0.1-1.2
				C-140,404.8-140.1,404.6-140.3,404.7z"/>
			
				<linearGradient id="SVGID_12_" gradientUnits="userSpaceOnUse" x1="260.4346" y1="2416.5112" x2="260.4346" y2="2363.4902" gradientTransform="matrix(0.6442 0 -2.933585e-005 0.6442 -297.2639 -1143.5131)">
				<stop  offset="0" style="stop-color:#00053D"/>
				<stop  offset="0.1748" style="stop-color:#000840"/>
				<stop  offset="0.3297" style="stop-color:#001046"/>
				<stop  offset="0.4771" style="stop-color:#001950"/>
				<stop  offset="0.6198" style="stop-color:#00245D"/>
				<stop  offset="0.758" style="stop-color:#002F6E"/>
				<stop  offset="0.809" style="stop-color:#003475"/>
				<stop  offset="0.9226" style="stop-color:#005793"/>
				<stop  offset="1" style="stop-color:#006DA9"/>
			</linearGradient>
			<path class="st12" d="M-119.4,403.9c0,0.1,0,0.1-0.1,0.2c-1.5,1.9-3.2,3.6-4.8,4.9c-2.5,1.9-5,2.4-6.2,1.2
				c-0.5-0.5-0.7-1.1-0.7-1.7c0-0.3-0.2-0.3-0.3-0.2c-1.5,1.5-4,3.1-6.4,1.9c-1.2-0.6-1.8-1.7-2.1-2.9l0,0c0.1,0.9,0.3,2.1,0.7,2.9
				c0.3,0.5,0.9,1.1,1.2,1.3c2.1,1,5-0.1,6.9-2c0,0,0,0,0.1-0.1c0.1,0.3,0.2,0.7,0.2,0.8c0.1,0.4,0.3,0.8,0.5,1
				c1.3,1.5,4.1,0.8,6.9-1.4c1.6-1.2,2.8-2.5,4.3-4.2c0.1-0.1,0.1-0.2,0-0.3C-119.2,404.9-119.4,404.2-119.4,403.9z"/>
			
				<linearGradient id="SVGID_13_" gradientUnits="userSpaceOnUse" x1="242.4467" y1="2416.5273" x2="242.4467" y2="2363.4717" gradientTransform="matrix(0.6442 0 -2.933585e-005 0.6442 -297.2639 -1143.5131)">
				<stop  offset="0" style="stop-color:#00053D"/>
				<stop  offset="0.1748" style="stop-color:#000840"/>
				<stop  offset="0.3297" style="stop-color:#001046"/>
				<stop  offset="0.4771" style="stop-color:#001950"/>
				<stop  offset="0.6198" style="stop-color:#00245D"/>
				<stop  offset="0.758" style="stop-color:#002F6E"/>
				<stop  offset="0.809" style="stop-color:#003475"/>
				<stop  offset="0.9226" style="stop-color:#005793"/>
				<stop  offset="1" style="stop-color:#006DA9"/>
			</linearGradient>
			<path class="st13" d="M-140.3,402.2c0.8-0.4,1.4-1.3,1.4-2.7c0-0.7-0.3-1.4-0.6-2c0.2,0.4,0.3,0.9,0.2,1.5
				c-0.1,0.9-0.6,1.7-1.5,2.2c-0.7,0.4-1.6,0.3-2.2-0.2c-0.2-0.2-0.3-0.4-0.4-0.6c0.2,0.7,0.3,1.2,0.5,1.5
				C-142.4,402.6-141.4,402.8-140.3,402.2z"/>
			
				<linearGradient id="SVGID_14_" gradientUnits="userSpaceOnUse" x1="271.3154" y1="2416.5085" x2="271.3154" y2="2363.5" gradientTransform="matrix(0.6442 0 -2.933585e-005 0.6442 -297.2639 -1143.5131)">
				<stop  offset="0" style="stop-color:#00053D"/>
				<stop  offset="0.1748" style="stop-color:#000840"/>
				<stop  offset="0.3297" style="stop-color:#001046"/>
				<stop  offset="0.4771" style="stop-color:#001950"/>
				<stop  offset="0.6198" style="stop-color:#00245D"/>
				<stop  offset="0.758" style="stop-color:#002F6E"/>
				<stop  offset="0.809" style="stop-color:#003475"/>
				<stop  offset="0.9226" style="stop-color:#005793"/>
				<stop  offset="1" style="stop-color:#006DA9"/>
			</linearGradient>
			<path class="st14" d="M-117.1,391.7c0-0.1-0.3-1.6-0.4-1.7v0.1c-0.5,0.8-9.8,15.1-10.4,16.6c-0.2,0.5-0.2,0.8,0,1.1
				c0.2,0.3,0.5,0.4,0.8,0.4c0-0.2,0.1-0.4,0.2-0.6c0.6-1.5,9.4-14.8,9.8-15.6C-117,391.8-117.1,391.7-117.1,391.7z"/>
			
				<linearGradient id="SVGID_15_" gradientUnits="userSpaceOnUse" x1="220.1709" y1="2415.9185" x2="220.1709" y2="2364.1328" gradientTransform="matrix(0.6442 0 -2.933585e-005 0.6442 -297.2639 -1143.5131)">
				<stop  offset="0" style="stop-color:#00053D"/>
				<stop  offset="0.1748" style="stop-color:#000840"/>
				<stop  offset="0.3297" style="stop-color:#001046"/>
				<stop  offset="0.4771" style="stop-color:#001950"/>
				<stop  offset="0.6198" style="stop-color:#00245D"/>
				<stop  offset="0.758" style="stop-color:#002F6E"/>
				<stop  offset="0.809" style="stop-color:#003475"/>
				<stop  offset="0.9226" style="stop-color:#005793"/>
				<stop  offset="1" style="stop-color:#006DA9"/>
			</linearGradient>
			<path class="st15" d="M-156.3,396.8L-156.3,396.8c0.6,0.9,0.9,2.1,1,3.3c0,0.3,0.1,0.3,0.3,0.1c0.1-0.1,0.2-0.2,0.3-0.4
				c-0.2-0.7-0.4-1.2-0.7-1.8C-155.5,397.8-155.9,397.1-156.3,396.8z"/>
			
				<linearGradient id="SVGID_16_" gradientUnits="userSpaceOnUse" x1="211.8299" y1="2416.4971" x2="211.8299" y2="2363.8442" gradientTransform="matrix(0.6442 0 -2.933585e-005 0.6442 -297.2639 -1143.5131)">
				<stop  offset="0" style="stop-color:#00053D"/>
				<stop  offset="0.1748" style="stop-color:#000840"/>
				<stop  offset="0.3297" style="stop-color:#001046"/>
				<stop  offset="0.4771" style="stop-color:#001950"/>
				<stop  offset="0.6198" style="stop-color:#00245D"/>
				<stop  offset="0.758" style="stop-color:#002F6E"/>
				<stop  offset="0.809" style="stop-color:#003475"/>
				<stop  offset="0.9226" style="stop-color:#005793"/>
				<stop  offset="1" style="stop-color:#006DA9"/>
			</linearGradient>
			<path class="st16" d="M-151.2,400.9c0.7-0.6,1.4-0.9,1.8-0.7c0.3-0.7,0.1-1.1-0.1-1.3c-0.4-0.3-1.3,0.1-2.1,0.7
				c-2,1.5-3.7,3.9-4.6,5c-0.5,0.6-1,1.6-2.3,3c-2.1,2.3-4.8,3.6-7.5,2.7c-1.5-0.5-2.5-1.7-2.9-3.1c-0.1-0.3-0.2-0.4-0.4-0.2
				c-0.4,0.5-1.3,1.3-2,1.8c-0.1,0.1-0.3,0.2-0.4,0.1c-0.2-0.1-0.7-0.8-0.8-1.1v-0.1l0,0c0.2,0.9,0.2,1.1,0.5,1.5
				c0.3,0.5,0.6,0.8,0.6,0.9c0.2,0.1,0.3,0,0.4,0c0.6-0.3,1.7-1.1,2.2-1.7c0.1-0.1,0.3,0,0.3,0.1c0.2,0.6,0.5,1.1,0.8,1.6
				c0.4,0.6,1.1,1.2,2,1.4c1.2,0.3,2.5,0.4,4.2-0.3c1.4-0.5,2.8-1.6,3.9-2.8c1.3-1.4,1.8-2.4,2.3-3
				C-154.4,404.4-153,402.5-151.2,400.9z"/>
			
				<linearGradient id="SVGID_17_" gradientUnits="userSpaceOnUse" x1="171.6764" y1="2416.5068" x2="171.6764" y2="2363.4985" gradientTransform="matrix(0.6442 0 -2.933585e-005 0.6442 -297.2639 -1143.5131)">
				<stop  offset="0" style="stop-color:#00053D"/>
				<stop  offset="0.1748" style="stop-color:#000840"/>
				<stop  offset="0.3297" style="stop-color:#001046"/>
				<stop  offset="0.4771" style="stop-color:#001950"/>
				<stop  offset="0.6198" style="stop-color:#00245D"/>
				<stop  offset="0.758" style="stop-color:#002F6E"/>
				<stop  offset="0.809" style="stop-color:#003475"/>
				<stop  offset="0.9226" style="stop-color:#005793"/>
				<stop  offset="1" style="stop-color:#006DA9"/>
			</linearGradient>
			<path class="st17" d="M-187.9,404.6c-0.3-1.1,0-2.2,0.4-3c0.7-1.4,1.6-2,2.5-2.6c0.4-0.3,0.6-0.5,0.3-1.2
				c-0.1-0.2-0.1-0.5-0.2-0.8c0,0.3-0.1,0.5-0.4,0.7c-1.1,0.6-2.5,1.6-3.2,2.9c-0.5,1.1-0.7,2.4,0.2,3.7
				C-188.1,404.4-188,404.5-187.9,404.6z"/>
			
				<linearGradient id="SVGID_18_" gradientUnits="userSpaceOnUse" x1="195.4182" y1="2416.4988" x2="195.4182" y2="2363.5034" gradientTransform="matrix(0.6442 0 -2.933585e-005 0.6442 -297.2639 -1143.5131)">
				<stop  offset="0" style="stop-color:#00053D"/>
				<stop  offset="0.1748" style="stop-color:#000840"/>
				<stop  offset="0.3297" style="stop-color:#001046"/>
				<stop  offset="0.4771" style="stop-color:#001950"/>
				<stop  offset="0.6198" style="stop-color:#00245D"/>
				<stop  offset="0.758" style="stop-color:#002F6E"/>
				<stop  offset="0.809" style="stop-color:#003475"/>
				<stop  offset="0.9226" style="stop-color:#005793"/>
				<stop  offset="1" style="stop-color:#006DA9"/>
			</linearGradient>
			<path class="st18" d="M-180,390.4c-0.2-1.6,1-4.2,4.1-5.3c4.1-1.4,8.7-0.5,12.4,0.3c0.5-0.3,1-0.5,1.4-0.8c0.2-0.1,0-0.3-0.1-0.3
				c-4.8-0.9-9.7-2.1-14.5-0.3c-3.3,1.2-4.7,3.8-4,5.6C-180.5,389.9-180.2,390.2-180,390.4z"/>
			
				<linearGradient id="SVGID_19_" gradientUnits="userSpaceOnUse" x1="188.8143" y1="2416.5076" x2="188.8143" y2="2363.5002" gradientTransform="matrix(0.6442 0 -2.933585e-005 0.6442 -297.2639 -1143.5131)">
				<stop  offset="0" style="stop-color:#00053D"/>
				<stop  offset="0.1748" style="stop-color:#000840"/>
				<stop  offset="0.3297" style="stop-color:#001046"/>
				<stop  offset="0.4771" style="stop-color:#001950"/>
				<stop  offset="0.6198" style="stop-color:#00245D"/>
				<stop  offset="0.758" style="stop-color:#002F6E"/>
				<stop  offset="0.809" style="stop-color:#003475"/>
				<stop  offset="0.9226" style="stop-color:#005793"/>
				<stop  offset="1" style="stop-color:#006DA9"/>
			</linearGradient>
			<path class="st19" d="M-167.4,395.5c1.6-0.2,3-0.3,4.4-0.4c0.4,0,0.7-0.1,0.9,0.1c0.5,0.5,1.1,1,1.5,1.2c0.3,0,0.5,0.1,0.6,0.2
				c0.2,0,0.3-0.1,0.4-0.2c0.2-0.2,0.2-0.4,0.2-0.6c-0.1-0.3-0.2-1-0.3-1.2c0.1,0.1,0,0.4-0.1,0.5s-0.3,0.2-0.5,0.2
				s-0.3-0.1-0.5-0.2c-0.5-0.3-1-0.7-1.4-1.2c-0.1-0.2-0.2-0.2-0.5-0.2c-1.5,0.1-3.8,0.3-5.4,0.5c-0.4,0-0.4,0.1-0.5,0.3
				c-2.5,4.1-5.2,8.6-8.1,11.6c-3.1,3.2-5.8,4-8.5,4.1c-3.2,0-6.1-1.8-6.8-5c0.4,1.8,1.5,3.9,2.9,4.9s2.7,1.3,4.2,1.3
				c3.2,0.1,6-1.2,9.1-4.4c2.9-3,5.5-7.1,8-11.3C-167.9,395.6-167.8,395.5-167.4,395.5z"/>
			
				<linearGradient id="SVGID_20_" gradientUnits="userSpaceOnUse" x1="189.9006" y1="2416.5217" x2="189.9006" y2="2363.4858" gradientTransform="matrix(0.6442 0 -2.933585e-005 0.6442 -297.2639 -1143.5131)">
				<stop  offset="0" style="stop-color:#00053D"/>
				<stop  offset="0.1748" style="stop-color:#000840"/>
				<stop  offset="0.3297" style="stop-color:#001046"/>
				<stop  offset="0.4771" style="stop-color:#001950"/>
				<stop  offset="0.6198" style="stop-color:#00245D"/>
				<stop  offset="0.758" style="stop-color:#002F6E"/>
				<stop  offset="0.809" style="stop-color:#003475"/>
				<stop  offset="0.9226" style="stop-color:#005793"/>
				<stop  offset="1" style="stop-color:#006DA9"/>
			</linearGradient>
			<path class="st20" d="M-172.5,394.9c-1.4,0-2.7,0.5-3.9,1.4c-0.3,0.3-0.8,0.2-1.1-0.1c-0.1-0.1-0.1-0.2-0.1-0.4
				c0,0.5,0.2,1.3,0.4,1.6c0.2,0.3,0.7,0.4,1.2,0.1c1-0.7,1.8-1.1,2.8-1.3c0.2-0.3,0.5-0.7,0.8-1.1V395
				C-172.4,395-172.4,395-172.5,394.9z"/>
			
				<linearGradient id="SVGID_21_" gradientUnits="userSpaceOnUse" x1="249.6638" y1="2369.9363" x2="249.7802" y2="2369.9363" gradientTransform="matrix(0.6442 0 -2.933585e-005 0.6442 -297.2639 -1143.5131)">
				<stop  offset="0" style="stop-color:#00053D"/>
				<stop  offset="0.1748" style="stop-color:#000840"/>
				<stop  offset="0.3297" style="stop-color:#001046"/>
				<stop  offset="0.4771" style="stop-color:#001950"/>
				<stop  offset="0.6198" style="stop-color:#00245D"/>
				<stop  offset="0.758" style="stop-color:#002F6E"/>
				<stop  offset="0.809" style="stop-color:#003475"/>
				<stop  offset="0.9226" style="stop-color:#005793"/>
				<stop  offset="1" style="stop-color:#006DA9"/>
			</linearGradient>
			<path class="st21" d="M-136.5,383.2C-136.4,383.2-136.4,383.2-136.5,383.2C-136.4,383.2-136.4,383.2-136.5,383.2z"/>
			
				<linearGradient id="SVGID_22_" gradientUnits="userSpaceOnUse" x1="225.9593" y1="2416.5044" x2="225.9593" y2="2363.5039" gradientTransform="matrix(0.6442 0 -2.933585e-005 0.6442 -297.2639 -1143.5131)">
				<stop  offset="0" style="stop-color:#00053D"/>
				<stop  offset="0.1748" style="stop-color:#000840"/>
				<stop  offset="0.3297" style="stop-color:#001046"/>
				<stop  offset="0.4771" style="stop-color:#001950"/>
				<stop  offset="0.6198" style="stop-color:#00245D"/>
				<stop  offset="0.758" style="stop-color:#002F6E"/>
				<stop  offset="0.809" style="stop-color:#003475"/>
				<stop  offset="0.9226" style="stop-color:#005793"/>
				<stop  offset="1" style="stop-color:#006DA9"/>
			</linearGradient>
			<path class="st22" d="M-167.4,392.6c-0.1,0.1,0,0.1,0.1,0.1c0.4,0,0.9,0,1.3-0.1c1.5-2.4,3.2-3.8,5.7-5.7
				c0.2-0.1,0.4-0.2,0.3-0.8c5.1,1.1,8.9,3,15.5,3c2,0,4.7-0.6,6.2-1.5c1.7-1,2.2-1.8,2.2-2.6c0-0.2,0-0.6-0.1-0.8
				c-0.1-0.3-0.1-0.6-0.2-0.9c0,0.1,0,0.2,0,0.4c-0.1,0.9-0.8,1.8-2.5,2.7c-2,1.1-4.1,1.4-6.2,1.4c-5.2,0-10.1-2-15.2-3.1
				c0,0.2,0.1,0.5-0.1,0.6C-163.1,387.5-165.7,389.6-167.4,392.6z"/>
			
				<linearGradient id="SVGID_23_" gradientUnits="userSpaceOnUse" x1="212.273" y1="2414.6951" x2="212.273" y2="2364.6157" gradientTransform="matrix(0.6442 0 -2.933585e-005 0.6442 -297.2639 -1143.5131)">
				<stop  offset="0" style="stop-color:#00053D"/>
				<stop  offset="0.1748" style="stop-color:#000840"/>
				<stop  offset="0.3297" style="stop-color:#001046"/>
				<stop  offset="0.4771" style="stop-color:#001950"/>
				<stop  offset="0.6198" style="stop-color:#00245D"/>
				<stop  offset="0.758" style="stop-color:#002F6E"/>
				<stop  offset="0.809" style="stop-color:#003475"/>
				<stop  offset="0.9226" style="stop-color:#005793"/>
				<stop  offset="1" style="stop-color:#006DA9"/>
			</linearGradient>
			<path class="st23" d="M-160.5,391.2c0.2-0.2,0.5-0.3,0.7-0.2c0.2-0.4,0.2-0.8,0-1s-0.6-0.2-0.9,0c-0.1,0.1-0.1,0.1-0.2,0.2
				c-0.5,0.5-0.7,1.2-0.6,1.7c0,0.2,0.1,0.3,0.2,0.2c0.1,0,0.2-0.1,0.3-0.1C-160.9,391.7-160.8,391.4-160.5,391.2z"/>
			
				<linearGradient id="SVGID_24_" gradientUnits="userSpaceOnUse" x1="214.0378" y1="2416.5095" x2="214.0378" y2="2363.5" gradientTransform="matrix(0.6442 0 -2.933585e-005 0.6442 -297.2639 -1143.5131)">
				<stop  offset="0" style="stop-color:#00053D"/>
				<stop  offset="0.1748" style="stop-color:#000840"/>
				<stop  offset="0.3297" style="stop-color:#001046"/>
				<stop  offset="0.4771" style="stop-color:#001950"/>
				<stop  offset="0.6198" style="stop-color:#00245D"/>
				<stop  offset="0.758" style="stop-color:#002F6E"/>
				<stop  offset="0.809" style="stop-color:#003475"/>
				<stop  offset="0.9226" style="stop-color:#005793"/>
				<stop  offset="1" style="stop-color:#006DA9"/>
			</linearGradient>
			<path class="st24" d="M-158.4,392.9c0.2-0.5,0.4-0.9,0.3-1.9c-0.1-0.6-0.2-1.2-0.4-1.5c0.3,0.7,0.2,1.5-0.2,2.2
				c-0.5,0.9-1.3,1.4-2,1.7c0,0-0.2,0-0.1,0.2c0,0.2,0.6,0.5,0.9,0.7h0.1C-159.5,394.1-158.8,393.7-158.4,392.9z"/>
			
				<linearGradient id="SVGID_25_" gradientUnits="userSpaceOnUse" x1="184.8622" y1="2416.5095" x2="184.8622" y2="2363.499" gradientTransform="matrix(0.6442 0 -2.933585e-005 0.6442 -297.2639 -1143.5131)">
				<stop  offset="0" style="stop-color:#00053D"/>
				<stop  offset="0.1748" style="stop-color:#000840"/>
				<stop  offset="0.3297" style="stop-color:#001046"/>
				<stop  offset="0.4771" style="stop-color:#001950"/>
				<stop  offset="0.6198" style="stop-color:#00245D"/>
				<stop  offset="0.758" style="stop-color:#002F6E"/>
				<stop  offset="0.809" style="stop-color:#003475"/>
				<stop  offset="0.9226" style="stop-color:#005793"/>
				<stop  offset="1" style="stop-color:#006DA9"/>
			</linearGradient>
			<path class="st25" d="M-181.7,394.6c0.7,0.4,1.6,0.7,2.5,0.6c3.4-0.1,5.9-2.9,6.8-5.2c0.2-0.6,0.1-1.3-0.1-1.8
				c0-0.2-0.1-0.6-0.2-0.9l0,0c0.1,0.2,0.1,0.6-0.1,1c-1.4,3.3-4,5.8-7.3,6c-1.9,0.1-3.4-0.9-4.1-2.4
				C-183.6,393.1-182.6,394.1-181.7,394.6z"/>
		</g>
	</g>
	<g>
		<path class="st26" d="M-155,373c-35.5,0-63.9,10.6-63.9,24c0,13.3,28.7,24,63.9,24s63.9-10.8,63.9-24S-119.8,373-155,373z
			 M-218.5,397.3c0-2.8,1.2-5.6,3.8-8.2c9.2-9.2,33.1-15.5,59.6-15.6c35-0.1,63.5,10.3,63.6,23.3c0,2.8-1.3,5.6-3.9,8.2
			c-9.2,9.2-33.1,15.5-59.5,15.6C-189.9,420.7-218.4,410.2-218.5,397.3z M-91.5,395.1c0,0.1,0,0.2,0.1,0.3
			C-91.4,395.4-91.4,395.3-91.5,395.1z"/>
	</g>
	<g>
		<g>
			
				<linearGradient id="SVGID_26_" gradientUnits="userSpaceOnUse" x1="-181.1881" y1="349.0082" x2="-197.2357" y2="289.1177" gradientTransform="matrix(0.9203 0 -4.190836e-005 0.9203 -2.2874 111.2085)">
				<stop  offset="0" style="stop-color:#B1B3B6"/>
				<stop  offset="0.35" style="stop-color:#DCDDDE"/>
				<stop  offset="0.65" style="stop-color:#DCDDDE"/>
				<stop  offset="1" style="stop-color:#B1B3B6"/>
			</linearGradient>
			<path class="st27" d="M-214.8,388.9c9.2-9.3,33.2-15.5,59.7-15.6c3.7,0,7.3,0.1,10.8,0.3c-3.5-0.2-7-0.3-10.7-0.3
				c-35.3,0-63.7,10.6-63.7,23.8c0,0.6,0.1,1.2,0.2,1.9c-0.1-0.5-0.2-1.1-0.2-1.6C-218.7,394.4-217.4,391.6-214.8,388.9z"/>
		</g>
		
			<linearGradient id="SVGID_27_" gradientUnits="userSpaceOnUse" x1="-138.9668" y1="316.2408" x2="-154.9408" y2="256.6251" gradientTransform="matrix(0.9203 0 -4.190836e-005 0.9203 -2.2874 111.2085)">
			<stop  offset="0" style="stop-color:#B1B3B6"/>
			<stop  offset="0.35" style="stop-color:#DCDDDE"/>
			<stop  offset="0.65" style="stop-color:#DCDDDE"/>
			<stop  offset="1" style="stop-color:#B1B3B6"/>
		</linearGradient>
		<path class="st28" d="M-95.3,405.1c-9.2,9.2-33.2,15.6-59.6,15.7c-3.7,0-7.4-0.1-11-0.3c3.5,0.2,7.2,0.3,10.9,0.3
			c35.1,0,63.7-10.7,63.7-23.8c0-0.5,0-1-0.1-1.5c0.1,0.4,0.1,0.8,0.1,1.2C-91.3,399.6-92.6,402.4-95.3,405.1z"/>
	</g>
	
		<linearGradient id="SVGID_28_" gradientUnits="userSpaceOnUse" x1="220.9641" y1="2357.2903" x2="220.9641" y2="2433.302" gradientTransform="matrix(0.6442 0 -2.933585e-005 0.6442 -297.2748 -1146.1443)">
		<stop  offset="0" style="stop-color:#FFFFFF"/>
		<stop  offset="0.5559" style="stop-color:#FCFCFC"/>
		<stop  offset="0.691" style="stop-color:#F8F8F8"/>
		<stop  offset="0.8" style="stop-color:#D1D3D4"/>
		<stop  offset="1" style="stop-color:#BCBEC0"/>
	</linearGradient>
	<path class="st29" d="M-155,418c-33.3,0-60.3-9.4-60.3-21s27-21,60.3-21s60.3,9.4,60.3,21S-121.7,418-155,418z M-155,377.8
		c-32.1,0-58.2,8.6-58.2,19.2s26.1,19.2,58.2,19.2s58.2-8.6,58.2-19.2S-122.9,377.8-155,377.8z"/>
	
		<linearGradient id="SVGID_29_" gradientUnits="userSpaceOnUse" x1="236.7186" y1="2377.5271" x2="236.7186" y2="2415.2246" gradientTransform="matrix(0.6442 0 -2.933585e-005 0.6442 -297.275 -1143.5245)">
		<stop  offset="0" style="stop-color:#FFFFFF"/>
		<stop  offset="0.4333" style="stop-color:#FCFCFC"/>
		<stop  offset="0.5892" style="stop-color:#F5F5F5"/>
		<stop  offset="0.691" style="stop-color:#ECECED"/>
		<stop  offset="0.8" style="stop-color:#E6E7E8"/>
		<stop  offset="1" style="stop-color:#D1D3D4"/>
	</linearGradient>
	<path class="st30" d="M-117.4,390.1c0.1-0.1,0-0.3-0.2-0.3c-1,0-2.2,0-3.2,0c-0.2,0-0.4,0-0.5,0.3c-0.4,0.7-4.9,7.5-5.7,8.8
		c-0.1,0.2-0.3,0.2-0.3-0.1c-0.1-0.8-0.8-1.7-1.8-2.1c-0.8-0.3-1.6-0.4-2.4-0.3c-1.5,0.2-2.8,1-4,1.9c-1.8,1.3-3.3,3.1-5.2,4.3
		c-1.1,0.7-2.5,1.3-3.5,0.4c-0.9-0.8-0.8-2.6,0.6-4c0.1-0.1,0.3,0,0.3,0.1c-0.1,0.6,0,1.3,0.5,1.7c0.6,0.5,1.4,0.6,2.2,0.2
		c0.9-0.4,1.4-1.2,1.5-2.2c0.2-1.4-0.9-2.7-2.3-2.8c-1.1-0.1-2.2,0.3-3.3,1.2c-0.5,0.4-0.8,0.8-1.3,1.4c-0.1,0.2-0.3,0.2-0.3-0.1
		c0.1-1.8-0.7-2.9-2.2-2.9c-1.2,0-2.4,0.6-3.4,1.4c-1.1,0.9-2,2-3,3.1c-0.1,0.1-0.2,0.1-0.3-0.1c0-1.2-0.3-2.4-0.9-3.2
		c-0.2-0.3-0.6-0.4-1-0.2c-0.2,0.1-0.7,0.3-1.1,0.7c-0.2,0.2-0.3,0.4-0.2,0.7c0.5,1.8,0.4,3.9-0.3,5.6c-0.7,1.6-2,3-3.5,3.5
		c-1,0.3-2.1,0.2-2.7-0.7c-0.9-1.2-0.5-3.4,0.8-5.2c1.2-1.6,2.9-2.6,4.6-3.2c0.2-0.1,0.2-0.2,0.2-0.4c-0.1-0.3-0.2-0.7-0.3-0.8
		c-0.2-0.4-0.6-0.5-1.1-0.4c-1.2,0.1-2.4,0.6-3.5,1.2c-2.9,1.6-4.4,4.6-5,6.2c-0.3,0.8-0.6,1.3-0.9,1.7c-0.5,0.6-1,1.1-2.1,2
		c-0.1,0.1-0.2,0.3-0.1,0.4c0.1,0.2,0.7,1,0.8,1.1c0.2,0.1,0.4,0,0.4-0.1c0.7-0.5,1.6-1.3,2-1.8c0.2-0.2,0.3-0.1,0.4,0.2
		c0.4,1.4,1.5,2.6,2.9,3.1c2.7,0.9,5.4-0.4,7.5-2.7c1.3-1.4,1.8-2.4,2.3-3c0.9-1.1,2.6-3.4,4.6-5c0.7-0.6,1.6-1,2.1-0.7
		c0.4,0.2,0.5,0.8-0.1,1.8c-2.1,3.8-5.1,8.2-5.6,9.3c-0.1,0.2,0,0.3,0.2,0.3c1.1,0,2.1,0,3.1,0c0.2,0,0.2-0.1,0.3-0.2
		c1.6-2.5,3.1-4.8,4.7-7.3c0.1-0.1,0.2,0,0.2,0c0,0.6,0.2,1.3,0.5,1.8c0.6,0.9,1.5,1.3,2.4,1.3c0.8,0,1.1-0.1,1.9-0.4
		c0.7-0.2,1.2-0.6,1.6-0.9c0.2-0.2,0.3,0.1,0.3,0.2c-0.4,2,0.1,4.3,2,5.3c2.3,1.2,4.9-0.5,6.4-1.9c0.1-0.1,0.3-0.1,0.3,0.2
		c0,0.6,0.3,1.2,0.7,1.7c1.2,1.2,3.7,0.7,6.2-1.2c1.6-1.2,3.3-3,4.8-4.9c0.1-0.1,0.1-0.2,0-0.3c-0.2-0.2-0.6-0.5-0.8-0.7
		c-0.1-0.1-0.3-0.1-0.3,0c-1.6,1.5-3,3.2-5,4.6c-0.7,0.5-1.8,0.9-2.3,0.2c-0.2-0.3-0.2-0.6,0-1.1
		C-127.3,405.2-117.9,391-117.4,390.1z M-129.8,402.1c0,0.1,0.2,0.2,0.3,0.3c0,0,0.1,0.1,0,0.2c-0.4,0.9-0.8,1.3-1.3,2.1
		c-0.5,0.7-1,1.2-1.6,1.7c-0.9,0.8-2.3,1.6-3.3,1.1c-0.5-0.2-0.7-0.9-0.7-1.5c0-1.5,0.7-3.1,2-4.7c1.5-1.9,3.2-2.9,4.3-2.3
		c1.2,0.6,0.8,1.9,0.3,2.9C-129.8,401.9-129.8,402-129.8,402.1z"/>
	
		<linearGradient id="SVGID_30_" gradientUnits="userSpaceOnUse" x1="206.3527" y1="2363.1775" x2="206.3527" y2="2415.47" gradientTransform="matrix(0.6442 0 -2.933585e-005 0.6442 -297.275 -1143.5245)">
		<stop  offset="0" style="stop-color:#FFFFFF"/>
		<stop  offset="0.4333" style="stop-color:#FCFCFC"/>
		<stop  offset="0.5892" style="stop-color:#F5F5F5"/>
		<stop  offset="0.691" style="stop-color:#ECECED"/>
		<stop  offset="0.8" style="stop-color:#E6E7E8"/>
		<stop  offset="1" style="stop-color:#D1D3D4"/>
	</linearGradient>
	<path class="st31" d="M-185.4,410.2c-3.5,0-6.6-2.1-6.9-5.9c-0.2-2.1,0.4-3.9,1.6-5.4c1-1.4,2.8-2.5,4.3-2.8c0.5-0.1,1.1,0,1.4,0.3
		c0.4,0.5,0.3,1-0.1,1.2c-1.1,0.6-2.5,1.6-3.2,2.9c-0.5,1.1-0.7,2.4,0.2,3.7c1.4,2.1,5.3,2.2,8.9-1.2c0.9-0.8,1.7-1.6,2.5-2.6
		c1.6-1.8,2.1-2.5,4.3-5.4v-0.1c0,0,0,0-0.1-0.1c-1.4,0-2.7,0.5-3.9,1.4c-0.3,0.3-0.8,0.2-1.1-0.1c-0.2-0.4-0.1-0.9,0.3-1.1
		c1.9-1.3,4.1-1.6,6.2-2c0,0,0.1,0,0.3-0.2c0.9-1.1,1.6-2.2,2.5-3.3c1-1.2,2.2-2.2,3.1-3c1.3-1.1,2.2-1.5,3-2c0.2-0.1,0-0.3-0.1-0.3
		c-4.8-0.9-9.7-2.1-14.5-0.3c-3.3,1.2-4.7,3.8-4,5.6c0.5,1.2,2.1,1.4,3.6,0.7c1.3-0.6,2.4-1.6,3.3-2.9c0.5-0.7,1.4-0.2,0.9,1
		c-1.4,3.3-4,5.8-7.3,6c-2.7,0.1-4.5-1.9-4.5-4.4c0-4.9,5.5-8.2,11.2-8.6c6.9-0.6,13.5,1.3,20.4,2.1c5.3,0.6,10.3,0.7,15.6-0.6
		c0.6-0.1,1.1,0.3,1,0.9c-0.1,0.9-0.8,1.8-2.5,2.7c-2,1.1-4.1,1.4-6.2,1.4c-5.2,0-10.1-2-15.2-3.1c0,0.2,0.1,0.5-0.1,0.6
		c-2.8,2.1-5.3,4.2-7,7.1c-0.1,0.1,0,0.1,0.1,0.1c1.5-0.1,2.8-0.1,4.2-0.2c0.2,0,0.2-0.1,0.2-0.3c-0.1-1,0.2-2.2,1.1-3
		c0.9-0.8,2.1-0.9,2.8-0.3c0.9,0.7,0.8,1.9,0.3,2.8s-1.3,1.4-2,1.7c0,0-0.2,0-0.1,0.2c0,0.2,1.1,0.8,1.2,1c0.1,0.1,0,0.4-0.1,0.5
		s-0.3,0.2-0.5,0.2s-0.3-0.1-0.5-0.2c-0.5-0.3-1-0.7-1.4-1.2c-0.1-0.2-0.2-0.2-0.5-0.2c-1.5,0.1-3.8,0.3-5.4,0.5
		c-0.4,0-0.4,0.1-0.5,0.3c-2.5,4.1-5.2,8.6-8.1,11.6C-180,409.3-182.6,410.2-185.4,410.2z M-161.5,391.8c0,0.2,0.1,0.3,0.2,0.2
		c0.5-0.1,1-0.5,1.3-0.9s0.4-1,0.1-1.2c-0.3-0.2-0.7-0.2-1,0.1C-161.4,390.5-161.6,391.3-161.5,391.8L-161.5,391.8"/>
</g>
</svg>
