<?xml version="1.0" encoding="utf-8"?>
<!-- Generator: Adobe Illustrator 19.0.0, SVG Export Plug-In . SVG Version: 6.00 Build 0)  -->
<svg version="1.1" id="Layer_1" xmlns="http://www.w3.org/2000/svg" xmlns:xlink="http://www.w3.org/1999/xlink" x="0px" y="0px"
	 viewBox="-230 372 150 50" style="enable-background:new -230 372 150 50;" xml:space="preserve">
<style type="text/css">
	.st0{fill:#FFFFFF;}
</style>
<g>
	<polygon class="st0" points="-125.7,391.3 -118.6,376.5 -126.4,376.5 -131.4,387.5 -131.4,376.5 -139.2,376.5 -139.2,411.6 
		-131.4,411.6 -131.4,401.3 -130.3,399.3 -125.8,411.6 -118,411.6 	"/>
	<path class="st0" d="M-107.7,392.1c0-1-0.3-2-1.5-2c-1.1,0-1.5,0.9-1.5,2v13.5c0,1,0.4,2,1.5,2s1.5-0.9,1.5-2V392.1z M-100.6,405.3
		c0,5.2-4,7.5-8.6,7.5c-4.5,0-8.6-2.3-8.6-7.5v-12.8c0-5.2,4-7.5,8.6-7.5c4.5,0,8.6,2.3,8.6,7.5V405.3z"/>
	<path class="st0" d="M-87.4,391.8c0-1-0.4-2-1.6-2s-1.6,0.9-1.6,2V406c0,1,0.4,2,1.6,2s1.6-0.9,1.6-2v-4.7h6.9v4.1
		c0,5.3-3.7,7.3-8.8,7.3c-5.4,0-8.7-2.4-8.7-7.8v-12.1c0-4.6,3.2-7.9,8.7-7.9c4.7,0,8.8,1.9,8.8,7.9v2.1h-6.9V391.8z"/>
	<rect x="-95.7" y="414.2" class="st0" width="12.9" height="5"/>
	<path class="st0" d="M-155.8,404.4c-2.8,2.4-6.4,3.1-9.4,1.8c-1.8-0.9-3.1-2.4-3.5-4.1c2.5,2.5,7.1,3.8,11.2-0.6
		c0,0,3.9-3.6,1.7-10.4c-1.1-3.4-5.2-6.2-8.6-6.5c-5.1-0.8-9.9,0.9-13.3,5.6c-3.9,6.1-4.4,12.8-7.3,19.6c-0.5,1.1-1.5,1.6-2.5,1.5
		c-1,0-2-0.4-2.5-1.5c-2.9-6.8-3.3-13.5-7.3-19.6c-3.3-4.7-8.2-6.4-13.3-5.6c-3.4,0.3-7.6,3.1-8.7,6.5c-2.2,6.8,1.7,10.4,1.7,10.4
		c4.2,4.4,8.7,3.1,11.2,0.6c-0.4,1.6-1.7,3.2-3.5,4.1c-3,1.3-6.7,0.6-9.4-1.8c-4.1-4.1-4.7-9.3-3.1-14.1c2-5.8,7.9-8.7,12.5-9.1
		c5.5-0.5,13.2,2.9,16.2,8.7c0.7,1.3,2.2,4.8,2.2,4.8h7.8c0,0,1.5-3.5,2.2-4.8c3.1-5.8,10.7-9.2,16.2-8.7c4.7,0.4,10.6,3.3,12.5,9.1
		C-151.1,395.1-151.7,400.3-155.8,404.4 M-146.6,388.8c-4.6-13.1-17.6-13.8-18.9-13.9c-5.8-0.1-12.3,1.9-17.2,6.7
		c-2,1.8-3.4,3.8-4.9,6c-1.5-2.2-2.9-4.3-4.9-6c-4.9-4.8-11.3-6.8-17.2-6.7c-1.3,0-14.4,0.8-18.9,13.9c-1.6,4.7-1.3,10.8,1.2,15.2
		c2.4,5.1,8.1,9.3,14.2,8.9c4.4-0.1,9.2-2.9,11-7.4c1.5-4,1-8.3-2.4-11.8c0.1,0.9,0.1,2.1-0.7,3.2c-1.4,1.9-3.6,2.4-5.8,1.6
		c-2-0.9-2.7-2.3-2.5-4.2c0.1-1.6,1.4-2.9,2.8-3.5c2.7-1.1,5.1-0.6,7.5,1.7c3.9,4.4,4.4,11,6.2,16c1.3,4.1,3.4,7.7,8,8.7
		c0.6,0.1,1.1,0.2,1.7,0.2c0.6,0,1.1,0,1.7-0.2c4.6-1,6.6-4.6,8-8.7c1.9-5,2.3-11.7,6.2-16c2.4-2.3,4.8-2.9,7.5-1.7
		c1.3,0.6,2.7,1.9,2.8,3.5c0.2,1.9-0.6,3.3-2.5,4.2c-2.3,0.8-4.4,0.4-5.8-1.6c-0.9-1.1-0.8-2.3-0.7-3.2c-3.4,3.5-3.9,7.7-2.4,11.8
		c1.8,4.5,6.6,7.3,11,7.4c6,0.4,11.8-3.8,14.2-8.9C-145.3,399.5-145,393.5-146.6,388.8"/>
</g>
</svg>
